hash;tex;results;stars;reward
64a820402a150898;\tfrac{9}{2}+\tfrac{7}{2}+\tfrac{2}{3}+6x+\tfrac{10}{3}x+\tfrac{7}{2}x = 0;-0.6753246753246752;1;10
99cb8e59b1fa15b;x^{\tfrac{5}{8}} = 7776;1679616;1;10
3d51a21f0bd43d41;2x^4+2x^3-46x^2+110x+156 = 0;-1,-6;1;10
1afc80e7c9cc524b;x^3-8x^2+29x-52 = 0;4;1;10
3e1878a02caf824c;2x^2+54x+304 = 0;-8,-19;1;10
27b82050fb1be316;4+10+\tfrac{3}{2}+\tfrac{7}{2}-5x+\tfrac{5}{2} = 0;4.3;1;10
2d837a533d6495b1;3x^3+21x^2-24x+270 = 0;-9;1;10
46491b30776d6e41;\tfrac{9}{2}+\tfrac{4}{3}+\tfrac{9}{2}x-4+\tfrac{7}{2}+10 = 0;-3.407407407407407;1;10
46f81f62e60c0bc1;-6+7x+3+\tfrac{3}{4} = 0;0.32142857142857145;1;10
2e4f1b30e846fb85;-9+\tfrac{2}{3}-10+\tfrac{5}{2}+\tfrac{3}{2}x = 0;10.555555555555557;1;10
84d6220abc00a21;-16x^2-128x-220 = 0;-2.5,-5.5;1;10
3e17ed55c93320b7;x^{\tfrac{7}{9}} = 16384;262144;1;10
5e9efe2e59266295;4x^4-12x^3-112x^2-352x-256 = 0;-1,8;1;10
7c646d8cdf8607e1;2^{ -2x-6 } = 8^{ -5x+4 };1.3846153846153846;1;10
2f0b83fbf2932892;x^{\tfrac{5}{4}} = 59049;6561;1;10
f50709c2b43cbb4;x^3+5x^2+17x+13 = 0;-1;1;10
601792e98749e8c8;x^{\tfrac{5}{9}} = 32;512;1;10
120b2814c7a4f5a2;10-6+\tfrac{8}{3}+\tfrac{9}{2}x+\tfrac{4}{3} = 0;-1.7777777777777777;1;10
3b0be00b32633bb2;5x^4-15x^3-15x^2-215x+780 = 0;4,3;1;10
13d0ff0d34eb63a7;x^{\tfrac{2}{3}} = 144;1728;1;10
30c3297ca363fee9;125x^2+275x+90 = 0;-1.8,-0.4;1;10
15c6c8b9aa791ebe;-3+\tfrac{5}{3}+\tfrac{5}{4}x+\tfrac{7}{4} = 0;-0.33333333333333337;1;10
369ac0e959bf7eb9;x^4-6x^3-4x^2-26x+35 = 0;1,7;1;10
4154b5cae1286a4f;5x^4+30x^3+70x^2+70x+25 = 0;-1,-1;1;10
3d321f2137319d8a;-3x^3+12x^2-18x+12 = 0;2;1;10
9f75e2efa0289ef;3x^2+6x-9 = 0;1,-3;1;10
368513b076cab4b1;-9+\tfrac{9}{2}+2x-9x = 0;-0.6428571428571429;1;10
e0e4da6bbeaccfd;5x^2+85x+210 = 0;-14,-3;1;10
c85c54f5a35fb2;\tfrac{2}{3}+\tfrac{8}{3}x+\tfrac{7}{3}+\tfrac{5}{4}x = 0;-0.7659574468085106;1;10
671a22fd7e5ab72d;x^{\tfrac{5}{6}} = 3125;15625;1;10
4fea197689a20cb9;\tfrac{9}{2}-3+5+3+\tfrac{3}{2}x = 0;-6.333333333333333;1;10
4a720d29bfb1e420;3x^3+18x^2+39x+30 = 0;-2;1;10
7d5b123126879284;-4x^2+84x-320 = 0;5,16;1;10
69966fc818488862;4x^2-24x-448 = 0;14,-8;1;10
b2f3a6cb8bdcfc5;x^{\tfrac{7}{4}} = 279936;1296;1;10
1cbcd14909956208;6x^2-18x-168 = 0;-4.0,7.0;1;10
7b597d77077807b;81^{ -9x-5 } = 2187^{ 7x+8 };-0.8941176470588236;1;10
31380d77474716b5;-4x^4-4x^3+68x^2-76x-624 = 0;-4,-3;1;10
19cf228f586b1ea7;\tfrac{7}{2}+9+3+\tfrac{2}{3}x-2+\tfrac{4}{3} = 0;-22.250000000000004;1;10
576a7bd961a3ff89;5x^3+30x^2+80x+80 = 0;-2;1;10
7c66b29c767e2239;4^{ 4x+5 } = 16^{ -10x+10 };0.625;1;10
5a1766496bb93db1;x^{\tfrac{3}{7}} = 64;16384;1;10
7b947ca13c554121;5x^4+20x^3+30x^2+20x-400 = 0;2,-4;1;10
5e16d7cbb6b1c38;x^{\tfrac{3}{8}} = 216;1679616;1;10
13374e08450bfc84;16^{ -8x+9 } = 32^{ 3x-8 };1.6170212765957446;1;10
54ef138f4336b821;4x^2-56x+96 = 0;12,2;1;10
66273ef20ef0d8c9;60x^2-85x-35 = 0;-0.3333333333333333,1.75;1;10
43d26e385d58bb4d;125^{ -8x+3 } = 78125^{ -2x+1 };0.2;1;10
235d5869e09de1d7;16^{ -7x-5 } = 64^{ 7x+3 };-0.5428571428571428;1;10
33569e712027f4e4;2^{ 4x-4 } = 32^{ -4x+6 };1.4166666666666667;1;10
3d884d885c84e581;4x^4-40x^3+148x^2-232x+120 = 0;3,1;1;10
53767aed7e8ed01e;3^{ -6x-7 } = 243^{ -3x+2 };1.8888888888888888;1;10
4384605ad608cba1;125x^2-650x+845 = 0;2.6,2.6;1;10
7be1a8764175f42a;x^{\tfrac{3}{8}} = 8;256;1;10
174a1dced3f70b2b;-5x^4+120x^2-680x+1365 = 0;3,-7;1;10
339630269efa9089;x^{\tfrac{7}{10}} = 78125;9765625;1;10
50122a90cb084c18;\tfrac{5}{2}+3x+\tfrac{5}{2}x+\tfrac{7}{2}x-8+\tfrac{9}{2}x = 0;0.4074074074074074;1;10
78928824e56290e9;3125^{ -9x+1 } = 15625^{ 7x+1 };-0.011494252873563218;1;10
3f80c7d25a4f9f84;20x^2+120x-65 = 0;0.5,-6.5;1;10
36050a1bb9aa5bea;12x^2-25x-323 = 0;6.333333333333333,-4.25;1;10
3b8f8727ed82a9c4;-9-9+\tfrac{9}{2}x = 0;4.0;1;10
487c6d555d973b94;\tfrac{3}{2}+\tfrac{3}{4}x-4+\tfrac{7}{4}x = 0;1.0;1;10
6bd8e2af91c475cb;6x+\tfrac{7}{4}+\tfrac{7}{2}-2 = 0;-0.5416666666666666;1;10
6dad7ba25ba763f5;-6+\tfrac{7}{2}+\tfrac{5}{4}x = 0;2.0;1;10
e801caac3e86f57;3125^{ 8x-9 } = 78125^{ -5x+7 };1.2533333333333334;1;10
201c1024c76000ac;4-7+\tfrac{2}{5}x = 0;7.5;1;10
7e2f3e1495b4e971;3x^4-42x^3+168x^2-342x+405 = 0;3,9;1;10
75a56942044b83cc;x^{\tfrac{5}{7}} = 32;128;1;10
334aafc3080b70e;3x^3-6x^2-33x-234 = 0;6;1;10
351229dac1b72c03;x^2+13x+40 = 0;-8,-5;1;10
780e41b71218cead;5x^4-30x^3-135x^2+180x+2080 = 0;4,8;1;10
50bdaaf2862212a2;\tfrac{3}{2}-7x+\tfrac{7}{2}+\tfrac{2}{3}+6+\tfrac{4}{3} = 0;1.8571428571428574;1;10
d42b827c8da71b0;-9+3-2+\tfrac{9}{2}x = 0;1.7777777777777777;1;10
51aa1002d26136fe;-40x^2-66x+442 = 0;2.6,-4.25;1;10
1e4e59b1e267781d;3x^4-6x^3-30x^2+258x-585 = 0;-5,3;1;10
6063bb4d68d20382;-1+\tfrac{2}{5}x-10 = 0;27.5;1;10
1c6a004c403a6d51;32^{ 2x-6 } = 256^{ -10x-3 };0.06666666666666667;1;10
7295f2a58a08ace8;27^{ 9x+8 } = 2187^{ 8x-3 };1.5517241379310345;1;10
7e5179e1fc73298c;-4x^2+28x-40 = 0;5,2;1;10
b2f3a6cb8bdcfc5;x^{\tfrac{7}{4}} = 279936;1296;1;10
1628aae3128f1a99;x^{\tfrac{2}{5}} = 36;7776;1;10
6cf0911ba9135ba6;x^3-3x^2-50 = 0;5;1;10
4a5e79617b470dfb;16x^2+132x-108 = 0;-9.0,0.75;1;10
58ddd7b3e21bd167;20x^2-19x+3 = 0;0.2,0.75;1;10
41145af8f5bda77c;-5x^3+10x^2+55x+390 = 0;6;1;10
2b25e407cb650e32;x^{\tfrac{2}{5}} = 64;32768;1;10
1af797a9fad013a9;5x^4-40x^3-115x^2+100x+500 = 0;2,10;1;10
33e5d5fa73ed1c07;45x^2+210x+205 = 0;-1.3905242917512701,-3.2761423749153966;2;10
47dfaf5954a4b1dc;\cos x = \tfrac{9}{41};77.31961650818018,282.68038349181984;2;10
566f10be39929b7e;x^3=3162;14.677563068867691;2;10
54b2d946fc9c4775;4x^2+28x-72 = 0;-9,2;1;10
43b3e432176810d8;4^{ -6x-8 } = 32^{ -5x+6 };3.5384615384615383;1;10
79048dbad0f7f049;\sin x = -\tfrac{7}{27};344.9738862408805,195.02611375911945;2;10
43ce7a6829cdd0af;\tfrac{10}{3}+\tfrac{7}{4}+10x = 0;-0.5083333333333334;1;10
4d9979e30a0fd52a;25^{ 9x-4 } = 3125^{ -8x+3 };0.39655172413793105;1;10
217d2696103dc4da;27x^2-126x+132 = 0;3.0786893258332633,1.5879773408334035;2;10
1b4ae4051c96a290;243^{ 1x+7 } = 729^{ 9x+2 };0.46938775510204084;1;10
707c67b948206aba;x^3=1424;11.250452656683711;2;10
68a8250f3e98f776;5x^2+110x+570 = 0;-8.35424868893541,-13.64575131106459;2;10
7735a28e40da25b;32x^2+224x+374 = 0;-2.75,-4.25;1;10
12145441d1f6c34e;x^{\tfrac{3}{10}} = 27;59049;1;10
614a551f1c9085c8;5x^3-20x^2-210x-900 = 0;10;1;10
6a9a5b8576f56be8;36x^2+264x+464 = 0;-2.9213106741667367,-4.412022659166596;2;10
6e642bbd171f5910;\sin x = -\tfrac{13}{15};299.9264348666142,240.07356513338576;2;10
8a9d43d71e7ea6d;x^3=9919;21.486019394797438;2;10
291b1dff6616a5b4;9^{ -10x+5 } = 729^{ -2x+9 };-5.5;1;10
61fe7916350df43c;12x^2-76x+64 = 0;1.0,5.333333333333333;1;10
7da0ca18f877f8ac;3x^4-30x^3+102x^2-150x+75 = 0;1,5;1;10
7d4b88e2475d0d38;18x^2-195x+513 = 0;4.5,6.333333333333333;1;10
20ef3f886d8b9d85;\tfrac{10}{3}x+\tfrac{8}{3}+\tfrac{9}{2}x+7+\tfrac{7}{3}x = 0;-0.9508196721311474;1;10
2df69add30ef841e;x^2=1649;40.607881008493905;2;10
5f1539ac0d0ae1a3;x^2=8145;90.24965373894794;2;10
25c74402a8658d5a;x^3=7790;19.82344602080348;2;10
3da400e3b592ba11;x^2=2462;49.61854492022111;2;10
1bb7082114cb2d;\cos x = -\tfrac{5}{17};107.10463517664381,252.8953648233562;2;10
1f567f5bad517a15;-2x^4-30x^3-174x^2-474x-520 = 0;-5,-4;1;10
71bea63aacc478e3;\tfrac{5}{3}x+\tfrac{9}{2}+\tfrac{7}{3}+\tfrac{8}{3}+9x = 0;-0.890625;1;10
27818e81c1bdf56d;\sin x = \tfrac{13}{24};32.797168295823646,147.20283170417636;2;10
70518f59179b2275;\tfrac{9}{2}+\tfrac{7}{2}+\tfrac{8}{3}x+\tfrac{5}{3}x = 0;-1.8461538461538463;1;10
407623e1a8b28d48;x^{\tfrac{7}{9}} = 128;512;1;10
4a48f41ca31b97b9;x^{\tfrac{3}{4}} = 1331;14641;1;10
13909baf70902792;x^{\tfrac{7}{6}} = 128;64;1;10
4d03683eb5e96567;\tfrac{5}{3}+2+\tfrac{3}{2}+\tfrac{5}{2}+\tfrac{2}{3}x = 0;-11.500000000000002;1;10
23fe5b7f7568c753;x^2=4049;63.631753079732135;2;10
16f60a93605358a8;27x^2+108x+90 = 0;-1.183503419072274,-2.8164965809277263;2;10
158cc70d888b9925;2x^3+18x^2+66x+130 = 0;-5;1;10
29dfcfcb43f3d25;-12x^2+50x-28 = 0;3.5,0.6666666666666666;1;10
1e077f919c4f58b1;2x^2-48x+282 = 0;13.732050807568877,10.267949192431123;2;10
742cfaf948939356;2x^3-52x+120 = 0;-6;1;10
2888dec53d44776c;-3x^3+3x^2+72x+378 = 0;7;1;10
144e5240cd91406e;-x^2-30x-223 = 0;-13.585786437626904,-16.414213562373096;2;10
4963995e7a9bfb86;x^{\tfrac{4}{9}} = 16;512;1;10
5516ca2d8da5dbe;x^{\tfrac{2}{7}} = 4;128;1;10
1c750f31fc8d2c55;-30x^2+42x+144 = 0;3.0,-1.6;1;10
3d14d252e9ebc590;-1+\tfrac{8}{3}x+7x+\tfrac{5}{2}x+9 = 0;-0.6575342465753425;1;10
792d5b952694fde8;x^2+14x+33 = 0;-11,-3;1;10
6d88d9a62ae7d796;x^3=3981;15.848836769081025;2;10
737b29bf3002e3d7;5x^3+40x^2+110x+300 = 0;-6;1;10
caf0dd0732c1f31;40x^2+200x-960 = 0;3.0,-8.0;1;10
110394959351cfa4;5^{ 5x+7 } = 15625^{ 8x-6 };1.0;1;10
753fb89e690fa23b;-5+\tfrac{8}{3}+\tfrac{5}{3}+\tfrac{9}{2}+\tfrac{9}{2}x = 0;-0.8518518518518517;1;10
2554b4696686ede6;5x^2-30x+15 = 0;5.449489742783178,0.5505102572168221;2;10
7aae05edbe0d3d25;\cos x = -\tfrac{8}{45};100.24034832118623,259.7596516788138;2;10
2c543c03b35083a6;9x^2+99x+266 = 0;-4.666666666666667,-6.333333333333333;1;10
77c00b3ce99ae467;4x^3-12x^2+48x-40 = 0;1;1;10
6936ad9e358f415a;\cos x = -\tfrac{29}{46};129.08220729735933,230.91779270264067;2;10
3f6ef609256fd44b;x^2=1252;35.38361202590826;2;10
3d71645e864c4d7;x^2=3443;58.677082408722406;2;10
25926db0e3f8c809;-20x^2+230x-300 = 0;1.5,10.0;1;10
1e10e9e4db79014c;\sin x = -\tfrac{27}{38};314.7222460247886,225.2777539752114;2;10
70aa36a61646d556;\cos x = \tfrac{21}{44};61.49256949064358,298.5074305093564;2;10
62c92c2a798a4145;x^{\tfrac{8}{9}} = 6561;19683;1;10
7e2d2ba7ab7f948d;x^{\tfrac{7}{10}} = 16384;1048576;1;10
2ac9fdd67fcb3ce3;81^{ -6x-5 } = 243^{ 4x-5 };0.11363636363636363;1;10
178afc5968d3ac2b;4x^2-32x+32 = 0;6.82842712474619,1.1715728752538097;2;10
443e534085e01462;\tfrac{3}{2}x+\tfrac{2}{3}x+\tfrac{3}{2}-8x+\tfrac{7}{2}x+\tfrac{10}{3}x = 0;-1.5000000000000007;1;10
2ced4f83d7efd20;x^2=5458;73.87827826905551;2;10
28f8e535f7dc25a9;x^3=14349;24.300052498658783;2;10
601792e98749e8c8;x^{\tfrac{5}{9}} = 32;512;1;10
36fbea2e97eea92;-24x^2+166x-170 = 0;1.25,5.666666666666667;1;10
1b07239c655ee38c;x^3=2420;13.425746889173132;2;10
69cf7275802da400;-3x+\tfrac{7}{2}x+\tfrac{5}{3}+\tfrac{8}{3}+\tfrac{5}{2}+8 = 0;-29.666666666666664;1;10
444d16975b390140;625^{ -6x+4 } = 78125^{ -10x-10 };-1.8695652173913044;1;10
5813444780d9fd62;\tfrac{7}{2}x+\tfrac{7}{3}+\tfrac{7}{3}+7+3x+\tfrac{4}{3} = 0;-2.0000000000000004;1;10
76dc77385f6d449a;\sin x = \tfrac{11}{43};14.821821062050113,165.1781789379499;2;10
751b31db4c9c47bd;36x^2-192x+232 = 0;3.4831632475943928,1.8501700857389407;2;10
2fde59d7ca5558da;\sin x = -\tfrac{11}{36};342.2084094269924,197.79159057300762;2;10
1528eed17053a452;-x^2+26x-162 = 0;15.64575131106459,10.35424868893541;2;10
270d2600e5ab3734;625^{ 7x+2 } = 3125^{ -8x+7 };0.39705882352941174;1;10
3aea5d2eb6414461;x^{\tfrac{7}{4}} = 16384;256;1;10
54e0c71337f2d89b;20x^2-133x+221 = 0;3.25,3.4;1;10
22dc84d4d49aad84;-16x^2-240x-872 = 0;-6.177124344467705,-8.822875655532295;2;10
4c6b0bacb9c07013;x^2=3674;60.61352984276695;2;10
2d80bcfcfb002d56;27x^2+162x+222 = 0;-2.1180828963118032,-3.8819171036881968;2;10
7c135ae6fef131f2;18x^2-180x+436 = 0;5.881917103688196,4.118082896311804;2;10
3b328d16c2120a39;\sin x = \tfrac{14}{39};21.03722125603684,158.96277874396316;2;10
33a229305346c0bd;\cos x = -\tfrac{30}{47};129.66501290759317,230.33498709240683;2;10
862dc30da8f22fa;\cos x = -\tfrac{5}{11};117.03569178941228,242.96430821058772;2;10
45058880a0427537;\sin x = -\tfrac{11}{20};326.6329870307682,213.36701296923175;2;10
112480ec248e787;x^2=601;24.515301344262525;2;10
2234f1e5641fd9fe;27x^2+90x+54 = 0;-0.7847495629784698,-2.5485837703548637;2;10
34b2e547fd1d5566;\cos x = -\tfrac{17}{29};125.88829755280591,234.1117024471941;2;10
776c0ba1d6ab2da0;-4x^2+56x-184 = 0;8.732050807568877,5.267949192431123;2;10
43aaa2909cf3a3;x^3=1572;11.627441965900154;2;10
c61687c67177095;\sin x = -\tfrac{14}{45};341.8737960394433,198.12620396055672;2;10
1c3f1aa10d0ff53e;27x^2+180x+279 = 0;-2.4514162296451363,-4.21525043702153;2;10
4e95064cf29a40b6;x^2=2371;48.692915295759406;2;10
770504c1175665a2;-12x^2+36x-3 = 0;2.914213562373095,0.08578643762690485;2;10
3b9975d44a3bb856;8x^2+32x+22 = 0;-0.8819660112501051,-3.118033988749895;2;10
6ae2fc8338a73124;\cos x = -\tfrac{18}{31};125.49593265025165,234.50406734974837;2;10
1d1027f59c633d95;27x^2-252x+573 = 0;5.412022659166596,3.9213106741667367;2;10
29bef55bc4a55c12;18x^2-12x-14 = 0;1.2761423749153968,-0.6094757082487301;2;10
4dd189d445413040;4x^2-12x+7 = 0;2.2071067811865475,0.7928932188134524;2;10
38733df07e6f558a;36x^2-192x+244 = 0;3.2440169358562922,2.0893163974770412;2;10
7c298ccc2e67b0a0;5x^2-20x-20 = 0;4.82842712474619,-0.8284271247461903;2;10
f1b3f9d6c9cbd01;8x^2-48x+66 = 0;3.8660254037844384,2.1339745962155616;2;10
3b904fac9b734216;\cos x = -\tfrac{8}{39};101.83700415589358,258.16299584410643;2;10
65724b8e37b01981;20x^2-240x+695 = 0;7.118033988749895,4.881966011250105;2;10
2033b99e1e109752;3x^2+36x+87 = 0;-3.3542486889354093,-8.64575131106459;2;10
4c2e0f0a957c351f;\sin x = -\tfrac{18}{35};329.05027692114066,210.94972307885934;2;10
7184ffe07a9bce36;9x^2-12x+2 = 0;1.1380711874576983,0.19526214587563495;2;10
609215e15cc3e5f5;9x^2+90x+220 = 0;-4.25464400750007,-5.74535599249993;2;10
5ef29b0c76d3f088;\sin x = -\tfrac{29}{48};322.83110034400056,217.16889965599944;2;10
3b8b80f1e608d6f6;16x^2+16x-8 = 0;0.3660254037844386,-1.3660254037844386;2;10
52c99a41fda79a4c;-2x^2+36x-146 = 0;11.82842712474619,6.17157287525381;2;10
7e4f8533b1c7fa80;\sin x = -\tfrac{12}{47};345.2075029585985,194.7924970414015;2;10
6a154452e201f418;4x^2-16x+11 = 0;3.118033988749895,0.8819660112501051;2;10
7cb134c9e859e628;-45x^2+120x-45 = 0;2.2152504370215302,0.45141622964513645;2;10
28f814ed674e2e47;x^3=9572;21.232488456686852;2;10
3de0fdf92f12b17d;\cos x = \tfrac{4}{33};83.03793730891556,276.96206269108444;2;10
2e3ac01661f089bb;x^3=11090;22.30029023598874;2;10
76b7f46375b5c5d1;3x^2+36x+99 = 0;-4.267949192431123,-7.732050807568877;2;10
7ce6d308252bccba;x^3 log_8 x = 222;6.305449634860651;3;10
23d0f92266e465cc;37^{ 3x+1 } = 30^{ 7x-5 };1.588894574219828;3;10
6e6c1bf1e63876d2;x^6 log_9 x = 982;3.4666369773205163;3;10
6f839352a4abda0;\sin x = -\tfrac{17}{42};336.1237922694491,203.8762077305509;2;10
713e7a9153f43302;\cos x = -\tfrac{25}{32};141.37516712694705,218.62483287305295;2;10
1555bc8567636789;x^2=2103;45.858477951192405;2;10
9c95366ec910d39;77^{ 9x+1 } = 65^{ 2x+8 };0.9448965559800824;3;10
1bae59f8312f0833;x 6^x = 919;3.1651016964556495;3;10
4f434013c0c986b7;x 7^x = 801;2.8904032075756594;3;10
6324eb71610dba51;8x^2+88x+232 = 0;-4.381966011250105,-6.618033988749895;2;10
539ce4045f6c54a0;x 8^x = 463;2.5092114450201644;3;10
665d9b82d6e4ffcf;\cos x = -\tfrac{27}{49};123.43704542991543,236.56295457008457;2;10
138065d529384885;67^{ 8x-6 } = 7^{ -3x-10 };0.14614349745692834;3;10
8118fd009ddb3b8;9^{ 1x+1 } = 58^{ 2x-6 };4.483693555547159;3;10
23c5144f5d3b1f1f;x 7^x = 568;2.7410254822568905;3;10
9dff21c83739fe4;71^{ 3x+5 } = 24^{ -10x-6 };-0.9060581297107431;3;10
e043b4a5cc0aaf6;59^{ 6x-8 } = 51^{ -1x-6 };0.31796773470240436;3;10
65f6b969d8e35470;97^{ 10x-3 } = 80^{ -9x+8 };0.5726377399503721;3;10
779ee6879a763c94;-9x^2+66x-118 = 0;4.244016935856292,3.0893163974770412;2;10
76817cd0ffad937b;-12x^2-180x-651 = 0;-6.085786437626905,-8.914213562373096;2;10
7dbae099647992e4;\cos x = -\tfrac{13}{24};122.79716829582364,237.20283170417636;2;10
2d9dcb55b17cf022;7^{ 4x+3 } = 68^{ 1x-2 };-4.005671588000648;3;10
68f5dc172e25fe00;x^4 log_9 x = 918;5.817629368564886;3;10
52af02bf43c33349;-8x^2-112x-388 = 0;-6.292893218813452,-7.707106781186548;2;10
649f132fe7468cb8;x^9 log_2 x = 44;1.5917849999015312;3;10
12be6e38f0a9eaf1;x^3 log_3 x = 286;5.659476861459232;3;10
691266ddc5ba07f8;x^2=639;25.278449319529077;2;10
5d168250a4a8c15a;x^8 log_8 x = 36;1.827112134441165;3;10
22fc779a7dc1f16d;x^5 log_5 x = 814;3.944314095571315;3;10
6655c2274c101d36;x 6^x = 128;2.2543122526227504;3;10
2068a63de1e88b83;93^{ -7x+6 } = 17^{ 6x+4 };0.325540018009193;3;10
67cc16841a3a75a7;-9x^2-54x-78 = 0;-2.4226497308103743,-3.5773502691896257;2;10
71efb4f1496d3049;20x^2-200x+475 = 0;6.118033988749895,3.881966011250105;2;10
77fa5f6734e95f24;87^{ -3x+9 } = 14^{ 9x+9 };0.44258393869215434;3;10
6a0e0430eae1cbd5;31^{ -7x+2 } = 50^{ -9x-8 };-3.4165752047041713;3;10
2f0f9e2f50706c9f;8x^2-72x+152 = 0;5.618033988749895,3.381966011250105;2;10
12e0a3857aa48f5;x 5^x = 78;2.2133268189955437;3;10
3bb144c61bc4cff7;x^8 log_4 x = 696;2.4003228840730886;3;10
1fac7b0f65cb3ca7;x 7^x = 816;2.8985001860083908;3;10
4692f8e46924ae3;41^{ -4x-3 } = 33^{ 4x+7 };-1.2349471492388429;3;10
2227087a49c359d;x 2^x = 750;6.787802250105961;3;10
34b1b3179209e579;13^{ -10x+1 } = 42^{ 6x+7 };-0.49086816427100644;3;10
1446318463c484a2;\sin x = \tfrac{23}{39};36.13881466313178,143.86118533686823;2;10
670332974b7988b7;27x^2-144x+174 = 0;3.4831632475943928,1.8501700857389407;2;10
5c47734df0786fa;x^9 log_2 x = 589;2.0270492474683963;3;10
260c382ea164b1b8;36x^2-240x+380 = 0;4.078689325833263,2.5879773408334033;2;10
7e00da77bfb6fc3;\cos x = -\tfrac{5}{22};103.13655878694486,256.8634412130551;2;10
1a64c4eb9204b733;x^7 log_2 x = 214;2.126461930185742;3;10
991fb4471758af7;x 6^x = 235;2.529183730997485;3;10
3c845a280b66dcea;x 6^x = 471;2.850478208241993;3;10
414b9ad8d8de12a1;\sin x = \tfrac{11}{42};15.18311404361319,164.8168859563868;2;10
69dcdffdc7711621;-4x^2+60x-219 = 0;8.72474487139159,6.275255128608411;2;10
7f07f6a1948f9143;63^{ 9x-6 } = 95^{ 3x+8 };2.5941045491585095;3;10
75744c4b6ba3d1f;12x^2+108x+237 = 0;-3.7928932188134525,-5.207106781186548;2;10
5246d88d75996014;68^{ -5x-4 } = 65^{ 5x+2 };-0.6010750774322163;3;10
543d42706a3705be;x^8 log_5 x = 651;2.422072252739076;3;10
506583c95285038b;x 2^x = 816;6.888281285128904;3;10
3f481cabe6afaf9d;x^5 log_9 x = 935;4.267746244169997;3;10
ab8c3e7a1020f91;6^{ -7x+7 } = 41^{ -5x-6 };-5.779353432995673;3;10
18e6243130d8927;9x^2+24x+14 = 0;-0.8619288125423017,-1.804737854124365;2;10
7ef5908b15be38e9;x 6^x = 404;2.7790112298807372;3;10
1dc651fe6fc85b0a;x^3 log_5 x = 448;7.155656801380583;3;10
467b4d861228c9b1;x 2^x = 375;5.972428989772008;3;10
1381af65f38110d3;x^4 log_4 x = 516;4.645529070935828;3;10
7207ac1db9e00569;x^2=1246;35.298725189445584;2;10
1b4d5bc5f1934987;x^5 log_6 x = 829;4.031816613500103;3;10
18641a877586ac6d;x^2=2741;52.354560450833695;2;10
7c1780b8e8222da;x^3=2283;13.16745887095475;2;10
799c45d046782929;49^{ -1x+6 } = 78^{ 3x-5 };2.6609248638944374;3;10
7145b31d3c1b08f2;73^{ -2x+9 } = 90^{ -5x-4 };-4.067599297470973;3;10
296cb107cd1bf361;x^3 log_8 x = 642;8.538464045423629;3;10
e4ed64ba721ceda;26^{ 4x-1 } = 19^{ -5x-4 };-0.30696407789168695;3;10
58e0dc1afdce4483;x 4^x = 145;2.837615091028047;3;10
1d0fa0e1093067af;35^{ -8x-5 } = 3^{ -3x+10 };-1.143791430356001;3;10
7cc2b62f998fb102;93^{ 10x+8 } = 10^{ -10x-9 };-0.8336872408341486;3;10
415d2477cf4db8ed;x^8 log_4 x = 694;2.3995674570391343;3;10
2620cce999732d2c;-36x^2+72x-12 = 0;1.816496580927726,0.18350341907227405;2;10
176f2ad7b0c0fa4f;x^2-26x+167 = 0;14.414213562373096,11.585786437626904;2;10
70e202c8cd951824;52^{ 4x-6 } = 97^{ -5x-3 };0.25811036345380106;3;10
1e23c7f1a805c788;x^3=10212;21.69553023669396;2;10
30a73b525cdbe7ef;x^3=8200;20.16529675218104;2;10
7245119fa51ec8cb;x^2=5356;73.18469785412795;2;10
5597e9aaf9a7391a;x 6^x = 888;3.148827543415533;3;10
123c0a3b72473802;x^3=11507;22.576366031358347;2;10
6e0e924619153bd9;-5x^2-60x-170 = 0;-4.585786437626905,-7.414213562373095;2;10
1c1df915b8dee40e;x^3=7690;19.73825611701675;2;10
3f762e4b6415444a;27x^2-198x+342 = 0;4.548583770354863,2.78474956297847;2;10
53760ae2f809875;x 5^x = 131;2.4678493273083393;3;10
44f035c1aea210d2;x^2 log_4 x = 440;15.006837246704533;3;10
7df22d755436b65f;x^7 log_3 x = 292;2.3348798205072336;3;10
378fc544f244c40;x^8 log_9 x = 472;2.4193627019210173;3;10
7e19e9514897d39e;x 3^x = 647;4.518565600637262;3;10
1519f45fe91280bc;30^{ 4x-10 } = 43^{ 1x-6 };1.1626625862435038;3;10
215ec5f8a5d01e0;x^7 log_3 x = 199;2.2283745542736204;3;10
425e8a19644b4338;x^3 log_8 x = 167;5.8202285038959705;3;10
3f8188088f41af9d;x^9 log_9 x = 47;1.779735643012664;3;10
5cc85acc67b90ba8;x 6^x = 270;2.5928044246120656;3;10
7ac4911b8d9a2119;x^6 log_3 x = 202;2.4971789543187435;3;10
123e26775d360f09;65^{ 7x+5 } = 48^{ 4x-7 };-3.4923317378981307;3;10
54222c0d41cb8b56;x 7^x = 433;2.623986947104648;3;10
78ae533766a07070;70^{ -5x-10 } = 9^{ 5x+6 };-1.7272950560800933;3;10
50f420d085337108;x 3^x = 489;4.307298888466046;3;10
3a9c515cfc515d96;64^{ 3x-5 } = 59^{ -10x+10 };1.1561962455225196;3;10
3555a899319b4d77;x 4^x = 892;3.9157969680057882;3;10
20973c927c691daa;x^2 log_2 x = 660;13.296682442405697;3;10
75194921a5d1e7a6;21^{ 7x+9 } = 2^{ 5x-5 };-1.7296074303694784;3;10
1010f0bccae523ed;x^6 log_3 x = 101;2.266610189115979;3;10
2bf70344c5b3ddfe;x^5 log_3 x = 319;3.141817735535789;3;10
25683d43533bb5b8;15^{ -6x-8 } = 43^{ -4x-2 };-11.750720927948402;3;10
5498bea5f906334a;x 8^x = 282;2.3104575829056824;3;10
7130256ebeee87bc;x 2^x = 141;4.858916663697682;3;10
2c256870e58c1843;x^7 log_8 x = 980;2.938256562917811;3;10
797fb78b55924e49;x 5^x = 106;2.3631994030545362;3;10
674aab5b33ed3c27;31^{ 1x-7 } = 56^{ 3x+2 };-3.713071258410634;3;10
5381ee248cb3785f;x^4 log_6 x = 153;3.787779326437583;3;10
3a2a9229f7a3f03c;x 8^x = 337;2.3815649602025375;3;10
94fa802a899ebbf;40^{ -5x+6 } = 29^{ 3x+8 };-0.16832627977747072;3;10
6718bcc107757e19;x^9 log_8 x = 465;2.2033661860845455;3;10
204d20b49dc00797;x^7 log_5 x = 835;2.788362235555377;3;10
13d4880027c5d0e0;x^5 log_4 x = 628;3.6736308282298924;3;10
501d5c971bcc520a;x 9^x = 169;2.01569502652039;3;10
2ffa3c268b37b51f;20x^4+20x^3-130x^2-1140x+1980 = 0;3.3660254037844384,1.6339745962155614;4;10
42ec12bd41269a32;2^{ 8x+4 } = 69^{ 10x+4 };-0.3849298989481244;3;10
5b7b4adfadc87188;x^4+16x^3+90x^2+272x+377 = 0;-3.3542486889354093,-8.64575131106459;4;10
49168ec5cfb855ef;2x^4-16x^3+46x^2-56x-16 = 0;4.23606797749979,-0.2360679774997898;4;10
1e4eff77f4795857;-18x^4-216x^3-1094x^2-3008x-3692 = 0;-3.528595479208968,-4.471404520791032;4;10
2fdeefff312cbd0d;x 7^x = 431;2.62199754820424;3;10
5c512fe9d7398d0b;-8x^4-24x^3-24x^2+96x+64 = 0;1.618033988749895,-0.6180339887498949;4;10
7545367fc65a86a3;x 9^x = 50;1.573989892751096;3;10
65606d6c0588e2e;4x^4-84x^3+634x^2-2112x+2886 = 0;8.36602540378444,6.633974596215562;4;10
50de4dc65a656c58;3x^4+66x^3+468x^2+1344x+1824 = 0;-6.76393202250021,-11.23606797749979;4;10
b9b6d64dfe6baf;29^{ 2x-10 } = 90^{ -5x-1 };0.9979307612029926;3;10
45758ad2ddfda4e9;x 2^x = 154;4.957247306973526;3;10
4c67cfbd944b207c;x^2 log_6 x = 93;8.76209460072712;3;10
bed7098a5cbc38d;20x^4+140x^3+455x^2+210x-450 = 0;0.7247448713915889,-1.724744871391589;4;10
4a66855659bce3f4;13^{ 4x+1 } = 14^{ 5x-5 };5.3688618263908765;3;10
3f84dbba1acf6340;x 5^x = 67;2.139850563064349;3;10
184005723b533d3;-2x^4+4x^3+20x^2+48x-96 = 0;4.732050807568877,1.2679491924311228;4;10
84af8a46cfbd056;x^2 log_2 x = 387;10.64902088471979;3;10
3139bb60a8ed2d57;x 4^x = 103;2.642341732748303;3;10
ab43f7d6ed9b1ef;x^4+14x^3+76x^2+204x+180 = 0;-1.5505102572168221,-6.449489742783178;4;10
181d96b466aae8f5;81^{ 1x+9 } = 76^{ 9x-2 };1.394115397883038;3;10
4e8f9191ce69c619;x 7^x = 662;2.8074254615813317;3;10
72fc71dad7adbb61;-36x^4-408x^3-1520x^2-2224x-1552 = 0;-4.195262145875635,-5.138071187457698;4;10
29a851f5a0fec4ab;5x^4+40x^3-35x^2-180x+1320 = 0;-4.267949192431123,-7.732050807568877;4;10
39e9b691f087cec9;x 6^x = 823;3.112821146195124;3;10
59bac3342dba1708;x^4-32x^3+307x^2-900x+950 = 0;16.44948974278318,11.550510257216821;4;10
50f3a9f776c6de4d;x 6^x = 849;3.127546167596977;3;10
5fbcac2e036191b6;37^{ -10x-1 } = 70^{ 10x-9 };0.4405613826920639;3;10
25e5b38e3619b3e5;x^7 log_9 x = 251;2.495689293387683;3;10
3f22fbdc57150c93;x^7 log_2 x = 55;1.8119900023302709;3;10
6fedd00cd38eeb91;x 5^x = 480;3.127518178388624;3;10
5a8885224cd3231f;27x^4+90x^3-135x^2-558x+270 = 0;2.2152504370215302,0.45141622964513645;4;10
5765c9c4e5646ca1;x^7 log_7 x = 974;2.9115179147192767;3;10
42649ede6d8c63aa;x 5^x = 729;3.345333907530744;3;10
4dcc1dbd22046541;x^8 log_6 x = 756;2.491309731468821;3;10
176bfb333278a7a2;16x^4+272x^3+1808x^2+5952x+8352 = 0;-4.381966011250105,-6.618033988749895;4;10
53578c9d8b87e1a3;x 9^x = 964;2.678721091724715;3;10
7b479db348f21afe;11^{ 9x+9 } = 76^{ -7x-6 };-0.9165500729355486;3;10
c9fd9b3b8e4903b;12x^4+156x^3+636x^2+960x+696 = 0;-4.381966011250105,-6.618033988749895;4;10
3f7c6746f045258d;x^7 log_4 x = 427;2.517621897825292;3;10
7f8b470d8dcb5625;33^{ -8x-10 } = 31^{ 6x-7 };-0.2249499515349001;3;10
389cf4ff0601fa81;4x^4-20x^2+240x-104 = 0;0.4494897427831779,-4.449489742783178;4;10
1d64f73abc69d8aa;71^{ 9x+2 } = 34^{ -6x+8 };0.33072529761651553;3;10
5f592503b86a0785;-5x^4+100x^3-715x^2+2490x-3690 = 0;9.82842712474619,4.17157287525381;4;10
6b6eb1c2426656a8;x^6 log_7 x = 507;3.092072226572487;3;10
38499ca4d18a156f;49^{ 6x+9 } = 94^{ -5x-9 };-1.6479341749158825;3;10
77a4f8904875c110;x^9 log_4 x = 802;2.2335665545909507;3;10
52cae2962366f5e;x 3^x = 989;4.841912477902349;3;10
3e0fe6c5fb2578f2;x^9 log_9 x = 557;2.25461432323851;3;10
68e3689c463c6dc6;45x^4+120x^3-945x^2+210x+10530 = 0;-3.4514162296451367,-5.21525043702153;4;10
32a7c6a8b49c3413;5x^4-90x^3+50x^2+2670x+9165 = 0;13.732050807568877,10.267949192431123;4;10
16eaca3064efaf34;98^{ 7x-2 } = 41^{ 9x+8 };-29.289744713588334;3;10
3432bacfc9de523e;16x^4-192x^3+728x^2-1072x+752 = 0;6.224744871391589,3.775255128608411;4;10
b2fbc631dfd1120;36x^4+120x^3-880x^2-1296x+7760 = 0;-4.195262145875635,-5.138071187457698;4;10
8a738c677a9a946;4x^4-16x^3-9x^2+86x-10 = 0;0.1180339887498949,-2.118033988749895;4;10
50475157d4e108b7;x^5 log_7 x = 55;2.5747819729601296;3;10
6b40719573da1ef3;20x^4-340x^3+2160x^2-6340x+7540 = 0;6.618033988749895,4.381966011250105;4;10
2896348a708a65fd;27x^4-234x^3+924x^2-2388x+2940 = 0;3.8047378541243653,2.8619288125423012;4;10
1484d41897453333;46^{ 1x+8 } = 61^{ -10x-9 };-1.504916305577925;3;10
6774fe708465bb60;x 6^x = 305;2.6488887792425655;3;10
3ccd0afd4b67484a;-18x^4+108x^3-80x^2+164x-1390 = 0;4.74535599249993,3.25464400750007;4;10
10572bf2f10bc6ae;2x^4+48x^3+232x^2-560x+664 = 0;-11.267949192431123,-14.732050807568877;4;10
c1ce695dd1ff6b8;x 9^x = 259;2.175314623102736;3;10
6d62ab92d11bd02d;x^5 log_4 x = 942;3.9421075067709705;3;10
483955318b6db217;x 3^x = 533;4.372126514790842;3;10
5d103829a166634;5x^4-120x^3+610x^2+340x+8200 = 0;15.23606797749979,10.76393202250021;4;10
3ec99a8cb8f4c13a;49^{ -6x-10 } = 87^{ 3x+7 };-1.909718239292151;3;10
251da751793f065f;-9x^4-42x^3-80x^2-76x-28 = 0;-0.8619288125423017,-1.804737854124365;4;10
49d733acd8129693;x 8^x = 718;2.6872385462368023;3;10
3274836982f41730;x 6^x = 196;2.4464621387815995;3;10
e4da232dd96bf8;94^{ 2x+9 } = 87^{ 3x-6 };15.700066230127005;3;10
316cb79f96082d03;x 4^x = 657;3.730240463082471;3;10
5f7e92f685bf47b0;2^{ -9x+7 } = 11^{ -4x+1 };-0.7318661772196695;3;10
6a1babb41eaef5c;x 3^x = 991;4.843460396373854;3;10
64ca62854150e409;85^{ 2x+6 } = 44^{ -5x-2 };-1.2308127117702028;3;10
1f36e19a5c9f5adf;x^2 log_3 x = 214;10.085928209623988;3;10
6617313d548e51d5;58^{ -2x+2 } = 13^{ -10x-4 };-1.0486105867117335;3;10
401630a07a0172a1;x 2^x = 376;5.975523695181307;3;10
7081b9fe32215601;5x^4-110x^3+775x^2-2220x+3000 = 0;11.449489742783179,6.550510257216822;4;10
77938fa0c748c58d;x 8^x = 971;2.8107848237518747;3;10
32a04cd856f54a13;29^{ 10x-10 } = 17^{ -9x-3 };0.4254270601157746;3;10
17825a27d0cabacc;2x^4+64x^3+628x^2+2240x+4914 = 0;-11.35424868893541,-16.64575131106459;4;10
52c755bbeae0f890;16x^4+32x^3-248x^2+912x+4176 = 0;-2.775255128608411,-5.224744871391589;4;10
7a5282b1b36e3412;x^4 log_2 x = 54;2.52208301533681;3;10
b4f3e2763ce764a;18x^4+108x^3-52x^2+604x+5642 = 0;-4.057190958417936,-5.942809041582064;4;10
478988f09c9ef27e;36x^4-120x^3+220x^2-1432x+2440 = 0;3.2440169358562922,2.0893163974770412;4;10
c9626fa42702331;-36x^4-288x^3-1168x^2-2368x-1612 = 0;-1.25464400750007,-2.74535599249993;4;10
5356a43d7979e7f5;13^{ -2x+6 } = 6^{ -9x+2 };-1.0736854653157255;3;10
2b97a4d1daaf03f3;8x^4-120x^3+550x^2-860x+652 = 0;7.724744871391589,5.275255128608411;4;10
35b6f028299c2d64;3x^4+24x^3-48x+108 = 0;-2.3542486889354093,-7.645751311064591;4;10
c0cb8563ebe8e24;x^9 log_7 x = 704;2.27962076336961;3;10
184ad952ee22f569;x 4^x = 448;3.4999999999999996;3;10
4a5c6689a97f8582;x 8^x = 625;2.6307466812472273;3;10
6db7683db641f835;37^{ -2x-1 } = 84^{ 10x-10 };0.7897777423597222;3;10
59f14e4d6e197037;3x^4+36x^3+33x^2-120x+2418 = 0;-6.585786437626905,-9.414213562373096;4;10
1ec70f1589b0a624;x^3 log_2 x = 807;6.657438167203356;3;10
2add1751a719f85;-2x^4+28x^3+18x^2-396x-3348 = 0;12.64575131106459,7.354248688935409;4;10
72435ade237893b0;12x^4-168x^3+864x^2-1968x+1680 = 0;5.414213562373095,2.585786437626905;4;10
7151f7a5a1549b27;x^8 log_5 x = 391;2.291058341647902;3;10
31bab6a96f149f7;4x^4-7x^2+14x+2 = 0;-0.1339745962155614,-1.8660254037844386;4;10
5f74b5dc09702b0e;x^3 log_5 x = 161;5.363311261659776;3;10
ace709fecf892fe;x 5^x = 672;3.302714345298764;3;10
cc40fc43d7ab7cd;16^{ -1x-7 } = 3^{ -5x-8 };3.9034476118682813;3;10
63343bfdb084f946;-3x^4+90x^3-765x^2+1974x-5670 = 0;16.64575131106459,11.35424868893541;4;10
79d6e43b2ed26653;27x^4-90x^3-231x^2-204x+2760 = 0;4.483163247594393,2.8501700857389403;4;10
45485bbe89e5806e;-9x^4-42x^3-92x^2+204x-36 = 0;1.1380711874576983,0.19526214587563495;4;10
5964b4f1060971c5;2x^4+12x^3+40x^2+44x-26 = 0;0.41421356237309515,-2.414213562373095;4;10
125dbfe55dee7a80;5x^4+150x^3+1250x^2+2590x+4725 = 0;-11.35424868893541,-16.64575131106459;4;10
61958dbea0d6c0ce;2x^4+36x^3+82x^2-356x+3016 = 0;-8.76393202250021,-13.23606797749979;4;10
244ead9c9204bc1b;27x^4-180x^3+150x^2-204x+2415 = 0;5.276142374915397,3.39052429175127;4;10
5adda8502d8f5024;-3x^4-30x^3-99x^2-138x-60 = 0;-0.7639320225002102,-5.23606797749979;4;10
10b9a8280deb6c01;-45x^4+240x^3-370x^2-600x+455 = 0;0.6094757082487301,-1.2761423749153968;4;10
1c4e16ef1fd8735;5x^4-80x^3+100x^2+1040x+3680 = 0;12.82842712474619,7.17157287525381;4;10
554e268c507221c2;36x^4-264x^3+176x^2+880x+1552 = 0;5.138071187457698,4.195262145875635;4;10
6db8bf9af1e090c9;45x^4-240x^3+505x^2-530x+230 = 0;2.1380711874576983,1.195262145875635;4;10
54e25c4c19f20c28;36x^4+24x^3-84x^2+120x+72 = 0;-0.45141622964513645,-2.2152504370215302;4;10
5d739459e0b98e4e;16x^4+8x^2-176x-40 = 0;2.224744871391589,-0.22474487139158894;4;10
7828c51ff64aeb60;-8x^4-104x^3-498x^2-1052x-820 = 0;-2.085786437626905,-4.914213562373095;4;10
79bef47a030b5e78;18x^4-60x^3-28x^2+468x+338 = 0;-0.7559830641437076,-1.910683602522959;4;10
736ad8d886c6e5b5;16x^4+224x^3+1288x^2+3696x+4176 = 0;-2.775255128608411,-5.224744871391589;4;10
728152b16c4585b9;5x^4-110x^3+750x^2-1910x+1825 = 0;11.82842712474619,6.17157287525381;4;10
2f4ca69c60466e6c;16x^4-192x^3+948x^2-2576x+2964 = 0;5.322875655532295,2.6771243444677046;4;10
424bfd7cc524fdd4;-3x^4-60x^3-78x^2+1548x-8856 = 0;-10.76393202250021,-15.23606797749979;4;10
57b25b1686768b47;4x^4-12x^3-70x^2-204x+1332 = 0;5.822875655532295,3.1771243444677046;4;10
3e5aa9f784c84b4a;-36x^4-384x^3-1664x^2-3312x-2444 = 0;-1.8619288125423017,-2.8047378541243653;4;10
7e03f961f5408b71;5x^4-10x^3-60x^2-160x+160 = 0;5.23606797749979,0.7639320225002102;4;10
16eec28ad0af436e;12x^4+204x^3+1173x^2+2736x+2445 = 0;-5.275255128608411,-7.724744871391589;4;10
69b8758511acdf16;x^4+14x^3+68x^2+140x+100 = 0;-1.5505102572168221,-6.449489742783178;4;10
43f054ca1b529b9;16x^4+144x^3-280x^2-912x+15696 = 0;-6.177124344467705,-8.822875655532295;4;10
2e37848bb08367ea;9x^4+36x^3-14x^2-44x+152 = 0;-2.25464400750007,-3.74535599249993;4;10
4545f7e168efe0b2;27x^4+198x^3+762x^2+1374x+663 = 0;-0.7238576250846033,-2.60947570824873;4;10
89713d43222ab6;4x^4+32x^3-93x^2-418x+2483 = 0;-5.881966011250105,-8.118033988749895;4;10
2123cdf43b639f65;20x^4-260x^3+1330x^2-3200x+2990 = 0;4.366025403784438,2.6339745962155616;4;10
16ad0e7ee10bbfab;-3x^4-54x^3-114x^2+498x-4407 = 0;-8.17157287525381,-13.82842712474619;4;10
38451e4dfee5b6ba;5x^4-50x^3-110x^2+790x+3965 = 0;9.732050807568877,6.267949192431123;4;10
1d660877b9d65b41;18x^4+72x^3-24x^2-96x+312 = 0;-2.4226497308103743,-3.5773502691896257;4;10
2fde5981d6c35fdc;45x^4-420x^3+1455x^2-2790x+2850 = 0;4.548583770354863,2.78474956297847;4;10
4ce714c20481bf5a;36x^4+336x^3+1472x^2+3440x+3068 = 0;-1.9213106741667367,-3.4120226591665967;4;10
474ceb6ff888028b;9x^4-114x^3+617x^2-1650x+1710 = 0;4.078689325833263,2.5879773408334033;4;10
19033e0a6da5e646;-5x^4-50x^3+25x^2+570x-1150 = 0;-5.267949192431123,-8.732050807568877;4;10
4ac83ef45b1400f;x^4+8x^3+25x^2+36x+8 = 0;-0.2679491924311228,-3.732050807568877;4;10
1b7a97a88579e130;12x^4-108x^3+456x^2-1020x+780 = 0;3.618033988749895,1.381966011250105;4;10
622855baf9c1664;x^4-22x^3+143x^2-296x+490 = 0;11.414213562373096,8.585786437626904;4;10
1afb51074a3bbcf1;5x^4-10x^3-35x^2-310x+260 = 0;5.23606797749979,0.7639320225002102;4;10
6f1e01f87a160388;9x^4+6x^3-54x^2+168x+336 = 0;-1.4514162296451365,-3.21525043702153;4;10
48b2af894b55cca4;-4x^4+16x^3+32x^2-224x+240 = 0;1.6457513110645907,-3.6457513110645907;4;10
50907316ee0b0026;4x^4+72x^3+464x^2+1480x+2444 = 0;-5.585786437626905,-8.414213562373096;4;10
1838a42baedc7cd5;-4x^4+48x^3-207x^2+396x-295 = 0;5.118033988749895,2.881966011250105;4;10
32fcb05f32803f3f;4x^4-24x^3+37x^2-198x+610 = 0;4.866025403784438,3.1339745962155616;4;10
66c47cabd73e6d86;45x^4+330x^3+795x^2+510x-150 = 0;0.21525043702153024,-1.5485837703548635;4;10
92d79b01be5e2d4;-4x^4-56x^3-285x^2-692x-744 = 0;-3.6771243444677046,-6.322875655532295;4;10
635859bb33ede8c7;3x^4-24x^3+54x^2+12x-120 = 0;3.23606797749979,-1.2360679774997898;4;10
6ac2ca069e924752;-20x^4+100x^3-330x^2+620x-100 = 0;2.8228756555322954,0.17712434446770464;4;10
2dbf85d4318be598;3x^4-66x^3+441x^2-1182x+2910 = 0;11.732050807568877,8.267949192431123;4;10
42643910977e1b18;12x^4+24x^3-39x^2+30x+66 = 0;-0.8819660112501051,-3.118033988749895;4;10
3e4b44a6025a8cd4;20x^4+120x^3+330x^2+540x+350 = 0;-1.2928932188134525,-2.7071067811865475;4;10
7e73391062645245;-27x^4-432x^3-2631x^2-7470x-8580 = 0;-4.25464400750007,-5.74535599249993;4;10
50043837aaa278cd;-8x^4-80x^3+26x^2+968x-1910 = 0;-5.881966011250105,-8.118033988749895;4;10
39172bb6f3280c5e;12x^4-132x^3+501x^2-990x+1125 = 0;5.724744871391589,3.275255128608411;4;10
8e85207d0dd41f5;x^4-23x^2+42x+30 = 0;-0.5505102572168221,-5.449489742783178;4;10
63ceb08b07e580d8;12x^4-36x^3-75x^2+234x+210 = 0;-0.7928932188134524,-2.2071067811865475;4;10
502c50a35b0a80f9;18x^4+132x^3+320x^2+216x-40 = 0;0.1498299142610593,-1.4831632475943926;4;10
